<svg width="14" height="10" viewBox="0 0 14 10" fill="none" xmlns="http://www.w3.org/2000/svg">
<path d="M13 5L1 5" stroke="white" stroke-linecap="round" stroke-linejoin="round"/>
<path d="M9.25 9L13 5L9 1" stroke="white" stroke-linecap="round" stroke-linejoin="round"/>
</svg>
